<svg width="28" height="22" viewBox="0 0 28 22" xmlns="http://www.w3.org/2000/svg">
<path fill-rule="evenodd" clip-rule="evenodd" d="M2.78502 2.57269C5.17872 0.274736 9.04661 0.274736 11.4403 2.57269L14.0001 5.03017L16.56 2.57269C18.9537 0.274736 22.8216 0.274736 25.2154 2.57269C27.609 4.87064 27.609 8.5838 25.2154 10.8818L14.0001 21.6483L2.78502 10.8818C0.391321 8.5838 0.391321 4.87064 2.78502 2.57269ZM9.67253 4.26974C8.25515 2.90905 5.97018 2.90905 4.55278 4.26974C3.1354 5.63043 3.1354 7.82401 4.55278 9.18476L14.0001 18.2542L23.4476 9.18476C24.865 7.82401 24.865 5.63043 23.4476 4.26974C22.0302 2.90905 19.7452 2.90905 18.3279 4.26974L14.0001 8.42432L9.67253 4.26974Z" fill="#888888"/>
</svg>
